…
- How many flights have a missing dep_time? What other variables are
  missing? What might these rows represent?

``` r
sum(is.na(flights$dep_time))
```

    ## [1] 8255

``` r
filter(flights, is.na(dep_time))
```

    ## # A tibble: 8,255 × 19
    ##     year month   day dep_time sched_dep_time dep_delay arr_time sched_arr_time
    ##    <int> <int> <int>    <int>          <int>     <dbl>    <int>          <int>
    ##  1  2013     1     1       NA           1630        NA       NA           1815
    ##  2  2013     1     1       NA           1935        NA       NA           2240
    ##  3  2013     1     1       NA           1500        NA       NA           1825
    ##  4  2013     1     1       NA            600        NA       NA            901
    ##  5  2013     1     2       NA           1540        NA       NA           1747
    ##  6  2013     1     2       NA           1620        NA       NA           1746
    ##  7  2013     1     2       NA           1355        NA       NA           1459
    ##  8  2013     1     2       NA           1420        NA       NA           1644
    ##  9  2013     1     2       NA           1321        NA       NA           1536
    ## 10  2013     1     2       NA           1545        NA       NA           1910
    ## # … with 8,245 more rows, and 11 more variables: arr_delay <dbl>,
    ## #   carrier <chr>, flight <int>, tailnum <chr>, origin <chr>, dest <chr>,
    ## #   air_time <dbl>, distance <dbl>, hour <dbl>, minute <dbl>, time_hour <dttm>
…
- Currently dep_time and sched_dep_time are convenient to look at, but
  hard to compute with because they’re not really continuous numbers.
  Convert them to a more convenient representation of number of minutes
  since midnight.

``` r
flights2 <- mutate(flights, 
                   sched_min = (sched_dep_time%%100*60+sched_dep_time%%100)%%1440, 
                   actual_min = (dep_time%%100*60+dep_time%%100)%%1440) 
flights2 <- flights2 %>%
  select(dep_time, actual_min, sched_dep_time, sched_min)
flights2
```

    ## # A tibble: 336,776 × 4
    ##    dep_time actual_min sched_dep_time sched_min
    ##       <int>      <dbl>          <int>     <dbl>
    ##  1      517       1037            515       915
    ##  2      533        573            529       329
    ##  3      542       1122            540      1000
    ##  4      544       1244            545      1305
    ##  5      554        414            600         0
    ##  6      554        414            558       658
    ##  7      555        475            600         0
    ##  8      557        597            600         0
    ##  9      557        597            600         0
    ## 10      558        658            600         0
    ## # … with 336,766 more rows
…
